<?xml version="1.0" encoding="utf-8"?>
<!-- Generator: Adobe Illustrator 21.0.2, SVG Export Plug-In . SVG Version: 6.00 Build 0)  -->
<svg version="1.1" id="Layer_1" xmlns="http://www.w3.org/2000/svg" xmlns:xlink="http://www.w3.org/1999/xlink" x="0px" y="0px"
	 width="44px" height="18.3px" viewBox="0 0 44 18.3" style="enable-background:new 0 0 44 18.3;" xml:space="preserve">
<style type="text/css">
	.st0{fill:#013333;}
</style>
<path class="st0" d="M35.2,0.6c-0.3-0.3-0.7-0.3-0.9,0s-0.3,0.7,0,0.9l6.9,6.9H1C0.7,8.4,0.4,8.7,0.4,9S0.7,9.7,1,9.7h40.1L34,16.8
	c-0.3,0.3-0.3,0.7,0,0.9c0.1,0.1,0.3,0.2,0.5,0.2s0.3-0.1,0.5-0.2L43.6,9L35.2,0.6z"/>
</svg>
